{
  "molecules": [
    {
      "atc_classifications": [
        "L02BA01"
      ],
      "availability_type": 1,
      "biotherapeutic": null,
      "black_box_warning": 1,
      "chemical_probe": 0,
      "chirality": 2,
      "cross_references": [],
      "dosed_ingredient": false,
      "first_approval": 1977,
      "first_in_class": 0,
      "helm_notation": null,
      "inorganic_flag": 0,
      "max_phase": "4.0",
      "molecule_chembl_id": "CHEMBL83",
      "molecule_hierarchy": {
        "active_chembl_id": "CHEMBL4525767",
        "molecule_chembl_id": "CHEMBL83",
        "parent_chembl_id": "CHEMBL83"
      },
      "molecule_properties": {
        "alogp": "6.00",
        "aromatic_rings": 3,
        "full_molformula": "C26H29NO",
        "full_mwt": "371.52",
        "hba": 2,
        "hbd": 0,
        "heavy_atoms": 28,
        "mw_freebase": "371.52",
        "np_likeness_score": "-0.40",
        "num_ro5_violations": 1,
        "psa": "12.47",
        "qed_weighted": "0.45",
        "ro3_pass": "N",
        "rtb": 8
      },
      "molecule_structures": {
        "canonical_smiles": "CC/C(=C(\\c1ccccc1)c1ccc(OCCN(C)C)cc1)c1ccccc1",
        "molfile": "\n     RDKit          2D\n\n 28 30  0  0  0  0  0  0  0  0999 V2000\n   -3.1458  -13.6542    0.0000 C   0  0  0  0  0  0  0  0  0  0  0  0\n   -3.7750  -13.3125    0.0000 C   0  0  0  0  0  0  0  0  0  0  0  0\n   -2.5458  -13.3042    0.0000 C   0  0  0  0  0  0  0  0  0  0  0  0\n   -3.1458  -14.3667    0.0000 C   0  0  0  0  0  0  0  0  0  0  0  0\n   -3.7750  -12.5917    0.0000 C   0  0  0  0  0  0  0  0  0  0  0  0\n   -1.9208  -13.6500    0.0000 C   0  0  0  0  0  0  0  0  0  0  0  0\n   -2.5458  -12.5917    0.0000 C   0  0  0  0  0  0  0  0  0  0  0  0\n    1.1417  -12.5792    0.0000 N   0  0  0  0  0  0  0  0  0  0  0  0\n   -1.3208  -12.5917    0.0000 C   0  0  0  0  0  0  0  0  0  0  0  0\n   -1.3083  -13.3042    0.0000 C   0  0  0  0  0  0  0  0  0  0  0  0\n   -1.9250  -12.2375    0.0000 C   0  0  0  0  0  0  0  0  0  0  0  0\n   -4.3750  -13.6667    0.0000 C   0  0  0  0  0  0  0  0  0  0  0  0\n   -0.7083  -12.2375    0.0000 O   0  0  0  0  0  0  0  0  0  0  0  0\n   -0.0875  -12.5792    0.0000 C   0  0  0  0  0  0  0  0  0  0  0  0\n    0.5167  -12.2167    0.0000 C   0  0  0  0  0  0  0  0  0  0  0  0\n   -3.7625  -14.7292    0.0000 C   0  0  0  0  0  0  0  0  0  0  0  0\n   -4.3958  -12.2417    0.0000 C   0  0  0  0  0  0  0  0  0  0  0  0\n   -3.1583  -12.2375    0.0000 C   0  0  0  0  0  0  0  0  0  0  0  0\n   -2.5333  -14.7250    0.0000 C   0  0  0  0  0  0  0  0  0  0  0  0\n    1.1500  -13.2792    0.0000 C   0  0  0  0  0  0  0  0  0  0  0  0\n    1.7500  -12.2083    0.0000 C   0  0  0  0  0  0  0  0  0  0  0  0\n   -5.0083  -13.3417    0.0000 C   0  0  0  0  0  0  0  0  0  0  0  0\n   -3.7583  -15.4417    0.0000 C   0  0  0  0  0  0  0  0  0  0  0  0\n   -4.3833  -11.5542    0.0000 C   0  0  0  0  0  0  0  0  0  0  0  0\n   -3.1500  -11.5500    0.0000 C   0  0  0  0  0  0  0  0  0  0  0  0\n   -2.5250  -15.4375    0.0000 C   0  0  0  0  0  0  0  0  0  0  0  0\n   -3.1500  -15.7917    0.0000 C   0  0  0  0  0  0  0  0  0  0  0  0\n   -3.7833  -11.1917    0.0000 C   0  0  0  0  0  0  0  0  0  0  0  0\n  2  1  2  0\n  3  1  1  0\n  4  1  1  0\n  5  2  1  0\n  6  3  2  0\n  7  3  1  0\n  8 15  1  0\n  9 11  1  0\n 10  6  1  0\n 11  7  2  0\n 12  2  1  0\n 13  9  1  0\n 14 13  1  0\n 15 14  1  0\n 16  4  2  0\n 17  5  1  0\n 18  5  2  0\n 19  4  1  0\n 20  8  1  0\n 21  8  1  0\n 22 12  1  0\n 23 16  1  0\n 24 17  2  0\n 25 18  1  0\n 26 19  2  0\n 27 26  1  0\n 28 25  2  0\n  9 10  2  0\n 27 23  2  0\n 28 24  1  0\nM  END\n> <chembl_id>\nCHEMBL83\n\n> <chembl_pref_name>\nTAMOXIFEN",
        "standard_inchi": "InChI=1S/C26H29NO/c1-4-25(21-11-7-5-8-12-21)26(22-13-9-6-10-14-22)23-15-17-24(18-16-23)28-20-19-27(2)3/h5-18H,4,19-20H2,1-3H3/b26-25-",
        "standard_inchi_key": "NKANXQFJJICGDU-QPLCGJKRSA-N"
      },
      "molecule_synonyms": [
        {
          "molecule_synonym": "ICI-47699",
          "syn_type": "RESEARCH_CODE",
          "synonyms": "ICI-47699"
        },
        {
          "molecule_synonym": "Mammaton",
          "syn_type": "OTHER",
          "synonyms": "MAMMATON"
        },
        {
          "molecule_synonym": "Novaldex",
          "syn_type": "OTHER",
          "synonyms": "NOVALDEX"
        },
        {
          "molecule_synonym": "NSC-727681",
          "syn_type": "RESEARCH_CODE",
          "synonyms": "NSC-727681"
        },
        {
          "molecule_synonym": "Tamoplex",
          "syn_type": "OTHER",
          "synonyms": "TAMOPLEX"
        },
        {
          "molecule_synonym": "Tamoxifen",
          "syn_type": "ATC",
          "synonyms": "TAMOXIFEN"
        },
        {
          "molecule_synonym": "Tamoxifen",
          "syn_type": "BAN",
          "synonyms": "TAMOXIFEN"
        },
        {
          "molecule_synonym": "Tamoxifen",
          "syn_type": "INN",
          "synonyms": "TAMOXIFEN"
        },
        {
          "molecule_synonym": "Tamoxifen",
          "syn_type": "MERCK_INDEX",
          "synonyms": "TAMOXIFEN"
        },
        {
          "molecule_synonym": "Tamoxifen",
          "syn_type": "OTHER",
          "synonyms": "TAMOXIFEN"
        },
        {
          "molecule_synonym": "Tamoxifene",
          "syn_type": "INN_FRENCH",
          "synonyms": "TAMOXIFENE"
        },
        {
          "molecule_synonym": "Tamoxifeno",
          "syn_type": "INN_SPANISH",
          "synonyms": "TAMOXIFENO"
        }
      ],
      "molecule_type": "Small molecule",
      "natural_product": 0,
      "oral": true,
      "orphan": 0,
      "parenteral": false,
      "polymer_flag": 0,
      "pref_name": "TAMOXIFEN",
      "prodrug": 1,
      "score": 32.0,
      "structure_type": "MOL",
      "therapeutic_flag": true,
      "topical": false,
      "usan_stem": null,
      "usan_stem_definition": null,
      "usan_substem": null,
      "usan_year": 1976,
      "veterinary": 0,
      "withdrawn_flag": false
    }
  ],
  "page_meta": {
    "limit": 1,
    "next": "/chembl/api/data/molecule/search.json?limit=1&offset=1&q=tamoxifen",
    "offset": 0,
    "previous": null,
    "total_count": 57
  },
  "_license_notice": "Data from the ChEMBL Database. Please review the licensing terms at https://www.ebi.ac.uk/chembl/"
}
